…
## `select()`

1. Make a data frame containing the columns `year`, `lifeExp`, `country` from the gapminder data, in that order.


```r
select(gapminder, year, lifeExp, country)
```

```
## # A tibble: 1,704 x 3
##     year lifeExp country    
##    <int>   <dbl> <fct>      
##  1  1952    28.8 Afghanistan
##  2  1957    30.3 Afghanistan
##  3  1962    32.0 Afghanistan
##  4  1967    34.0 Afghanistan
##  5  1972    36.1 Afghanistan
##  6  1977    38.4 Afghanistan
##  7  1982    39.9 Afghanistan
##  8  1987    40.8 Afghanistan
##  9  1992    41.7 Afghanistan
## 10  1997    41.8 Afghanistan
## # ... with 1,694 more rows
```

```r
#why we can select those variables withhout having it in R environment
```
2. Select all variables, from `country` to `lifeExp`. 


```r
select(gapminder, country:lifeExp)
```

```
## # A tibble: 1,704 x 4
##    country     continent  year lifeExp
##    <fct>       <fct>     <int>   <dbl>
##  1 Afghanistan Asia       1952    28.8
##  2 Afghanistan Asia       1957    30.3
##  3 Afghanistan Asia       1962    32.0
##  4 Afghanistan Asia       1967    34.0
##  5 Afghanistan Asia       1972    36.1
##  6 Afghanistan Asia       1977    38.4
##  7 Afghanistan Asia       1982    39.9
##  8 Afghanistan Asia       1987    40.8
##  9 Afghanistan Asia       1992    41.7
## 10 Afghanistan Asia       1997    41.8
## # ... with 1,694 more rows
```
…
3. Select all variables, except `lifeExp`.

```r
select(gapminder,-lifeExp)
```

```
## # A tibble: 1,704 x 5
##    country     continent  year      pop gdpPercap
##    <fct>       <fct>     <int>    <int>     <dbl>
##  1 Afghanistan Asia       1952  8425333      779.
##  2 Afghanistan Asia       1957  9240934      821.
##  3 Afghanistan Asia       1962 10267083      853.
##  4 Afghanistan Asia       1967 11537966      836.
##  5 Afghanistan Asia       1972 13079460      740.
##  6 Afghanistan Asia       1977 14880372      786.
##  7 Afghanistan Asia       1982 12881816      978.
##  8 Afghanistan Asia       1987 13867957      852.
##  9 Afghanistan Asia       1992 16317921      649.
## 10 Afghanistan Asia       1997 22227415      635.
## # ... with 1,694 more rows
```

```r
select(gapminder, -(country:lifeExp))
```

```
## # A tibble: 1,704 x 2
##         pop gdpPercap
##       <int>     <dbl>
##  1  8425333      779.
##  2  9240934      821.
##  3 10267083      853.
##  4 11537966      836.
##  5 13079460      740.
##  6 14880372      786.
##  7 12881816      978.
##  8 13867957      852.
##  9 16317921      649.
## 10 22227415      635.
## # ... with 1,694 more rows
```
4. Put `continent` first. Hint: use the `everything()` function.

```r
select(gapminder,continent,everything())
```

```
## # A tibble: 1,704 x 6
##    continent country      year lifeExp      pop gdpPercap
##    <fct>     <fct>       <int>   <dbl>    <int>     <dbl>
##  1 Asia      Afghanistan  1952    28.8  8425333      779.
##  2 Asia      Afghanistan  1957    30.3  9240934      821.
##  3 Asia      Afghanistan  1962    32.0 10267083      853.
##  4 Asia      Afghanistan  1967    34.0 11537966      836.
##  5 Asia      Afghanistan  1972    36.1 13079460      740.
##  6 Asia      Afghanistan  1977    38.4 14880372      786.
##  7 Asia      Afghanistan  1982    39.9 12881816      978.
##  8 Asia      Afghanistan  1987    40.8 13867957      852.
##  9 Asia      Afghanistan  1992    41.7 16317921      649.
## 10 Asia      Afghanistan  1997    41.8 22227415      635.
## # ... with 1,694 more rows
```

```r
select(gapminder,continent, year ,continent)
```

```
## # A tibble: 1,704 x 2
##    continent  year
##    <fct>     <int>
##  1 Asia       1952
##  2 Asia       1957
##  3 Asia       1962
##  4 Asia       1967
##  5 Asia       1972
##  6 Asia       1977
##  7 Asia       1982
##  8 Asia       1987
##  9 Asia       1992
## 10 Asia       1997
## # ... with 1,694 more rows
```

```r
#redundancy will be eliminated
```
5. Rename `continent` to `cont`.

```r
rename(gapminder,cont = continent)
```

```
## # A tibble: 1,704 x 6
##    country     cont   year lifeExp      pop gdpPercap
##    <fct>       <fct> <int>   <dbl>    <int>     <dbl>
##  1 Afghanistan Asia   1952    28.8  8425333      779.
##  2 Afghanistan Asia   1957    30.3  9240934      821.
##  3 Afghanistan Asia   1962    32.0 10267083      853.
##  4 Afghanistan Asia   1967    34.0 11537966      836.
##  5 Afghanistan Asia   1972    36.1 13079460      740.
##  6 Afghanistan Asia   1977    38.4 14880372      786.
##  7 Afghanistan Asia   1982    39.9 12881816      978.
##  8 Afghanistan Asia   1987    40.8 13867957      852.
##  9 Afghanistan Asia   1992    41.7 16317921      649.
## 10 Afghanistan Asia   1997    41.8 22227415      635.
## # ... with 1,694 more rows
```
```r
#should put new name ahead
```


## `arrange()`

1. Order by year.

```r
arrange(gapminder,year)
```

```
## # A tibble: 1,704 x 6
##    country     continent  year lifeExp      pop gdpPercap
##    <fct>       <fct>     <int>   <dbl>    <int>     <dbl>
##  1 Afghanistan Asia       1952    28.8  8425333      779.
##  2 Albania     Europe     1952    55.2  1282697     1601.
##  3 Algeria     Africa     1952    43.1  9279525     2449.
##  4 Angola      Africa     1952    30.0  4232095     3521.
##  5 Argentina   Americas   1952    62.5 17876956     5911.
##  6 Australia   Oceania    1952    69.1  8691212    10040.
##  7 Austria     Europe     1952    66.8  6927772     6137.
##  8 Bahrain     Asia       1952    50.9   120447     9867.
##  9 Bangladesh  Asia       1952    37.5 46886859      684.
## 10 Belgium     Europe     1952    68    8730405     8343.
## # ... with 1,694 more rows
```
2. Order by year, in descending order.

```r
arrange(gapminder,desc(year))
```

```
## # A tibble: 1,704 x 6
##    country     continent  year lifeExp       pop gdpPercap
##    <fct>       <fct>     <int>   <dbl>     <int>     <dbl>
##  1 Afghanistan Asia       2007    43.8  31889923      975.
##  2 Albania     Europe     2007    76.4   3600523     5937.
##  3 Algeria     Africa     2007    72.3  33333216     6223.
##  4 Angola      Africa     2007    42.7  12420476     4797.
##  5 Argentina   Americas   2007    75.3  40301927    12779.
##  6 Australia   Oceania    2007    81.2  20434176    34435.
##  7 Austria     Europe     2007    79.8   8199783    36126.
##  8 Bahrain     Asia       2007    75.6    708573    29796.
##  9 Bangladesh  Asia       2007    64.1 150448339     1391.
## 10 Belgium     Europe     2007    79.4  10392226    33693.
## # ... with 1,694 more rows
```
3. Order by year, then by life expectancy.

```r
arrange(gapminder,year,lifeExp)
```

```
## # A tibble: 1,704 x 6
##    country       continent  year lifeExp     pop gdpPercap
##    <fct>         <fct>     <int>   <dbl>   <int>     <dbl>
##  1 Afghanistan   Asia       1952    28.8 8425333      779.
##  2 Gambia        Africa     1952    30    284320      485.
##  3 Angola        Africa     1952    30.0 4232095     3521.
##  4 Sierra Leone  Africa     1952    30.3 2143249      880.
##  5 Mozambique    Africa     1952    31.3 6446316      469.
##  6 Burkina Faso  Africa     1952    32.0 4469979      543.
##  7 Guinea-Bissau Africa     1952    32.5  580653      300.
##  8 Yemen, Rep.   Asia       1952    32.5 4963829      782.
##  9 Somalia       Africa     1952    33.0 2526994     1136.
## 10 Guinea        Africa     1952    33.6 2664249      510.
## # ... with 1,694 more rows
```
## Piping, `%>%`

Note: think of `%>%` as the word "then"!

1. Combine `select()` Task 1 with `arrange()` Task 3.

```r
gapminder %>% 
  select(year,lifeExp,country) %>% 
  arrange(year, lifeExp)
```

```
## # A tibble: 1,704 x 3
##     year lifeExp country      
##    <int>   <dbl> <fct>        
##  1  1952    28.8 Afghanistan  
##  2  1952    30   Gambia       
##  3  1952    30.0 Angola       
##  4  1952    30.3 Sierra Leone 
##  5  1952    31.3 Mozambique   
##  6  1952    32.0 Burkina Faso 
##  7  1952    32.5 Guinea-Bissau
##  8  1952    32.5 Yemen, Rep.  
##  9  1952    33.0 Somalia      
## 10  1952    33.6 Guinea       
## # ... with 1,694 more rows
```
…
## `filter()`

1. Only take data with population greater than 100 million.


```r
gapminder %>% 
  filter(pop > 1000000)
```

```
## # A tibble: 1,524 x 6
##    country     continent  year lifeExp      pop gdpPercap
##    <fct>       <fct>     <int>   <dbl>    <int>     <dbl>
##  1 Afghanistan Asia       1952    28.8  8425333      779.
##  2 Afghanistan Asia       1957    30.3  9240934      821.
##  3 Afghanistan Asia       1962    32.0 10267083      853.
##  4 Afghanistan Asia       1967    34.0 11537966      836.
##  5 Afghanistan Asia       1972    36.1 13079460      740.
##  6 Afghanistan Asia       1977    38.4 14880372      786.
##  7 Afghanistan Asia       1982    39.9 12881816      978.
##  8 Afghanistan Asia       1987    40.8 13867957      852.
##  9 Afghanistan Asia       1992    41.7 16317921      649.
## 10 Afghanistan Asia       1997    41.8 22227415      635.
## # ... with 1,514 more rows
```


```r
gapminder %>% 
  filter(!(pop > 1000000))
```

```
## # A tibble: 180 x 6
##    country continent  year lifeExp    pop gdpPercap
##    <fct>   <fct>     <int>   <dbl>  <int>     <dbl>
##  1 Bahrain Asia       1952    50.9 120447     9867.
##  2 Bahrain Asia       1957    53.8 138655    11636.
##  3 Bahrain Asia       1962    56.9 171863    12753.
##  4 Bahrain Asia       1967    59.9 202182    14805.
##  5 Bahrain Asia       1972    63.3 230800    18269.
##  6 Bahrain Asia       1977    65.6 297410    19340.
##  7 Bahrain Asia       1982    69.1 377967    19211.
##  8 Bahrain Asia       1987    70.8 454612    18524.
##  9 Bahrain Asia       1992    72.6 529491    19036.
## 10 Bahrain Asia       1997    73.9 598561    20292.
## # ... with 170 more rows
```
2. Of those, only take data from Asia.

```r
gapminder %>%
  filter(continent == "Asia")
```

```
## # A tibble: 396 x 6
##    country     continent  year lifeExp      pop gdpPercap
##    <fct>       <fct>     <int>   <dbl>    <int>     <dbl>
##  1 Afghanistan Asia       1952    28.8  8425333      779.
##  2 Afghanistan Asia       1957    30.3  9240934      821.
##  3 Afghanistan Asia       1962    32.0 10267083      853.
##  4 Afghanistan Asia       1967    34.0 11537966      836.
##  5 Afghanistan Asia       1972    36.1 13079460      740.
##  6 Afghanistan Asia       1977    38.4 14880372      786.
##  7 Afghanistan Asia       1982    39.9 12881816      978.
##  8 Afghanistan Asia       1987    40.8 13867957      852.
##  9 Afghanistan Asia       1992    41.7 16317921      649.
## 10 Afghanistan Asia       1997    41.8 22227415      635.
## # ... with 386 more rows
```
…
