…
``` r
dim(weather)
```

    ## [1] 26115    15

### 2. Drop unimportant variables so it's easier to understand the join results. Also take first 1000 rows to run it faster.

``` r
flights2 <- flights[1:1000,] %>% 
  select(year, tailnum, carrier, time_hour)
flights2
```

    ## # A tibble: 1,000 x 4
    ##     year tailnum carrier time_hour          
    ##    <int> <chr>   <chr>   <dttm>             
    ##  1  2013 N14228  UA      2013-01-01 05:00:00
    ##  2  2013 N24211  UA      2013-01-01 05:00:00
    ##  3  2013 N619AA  AA      2013-01-01 05:00:00
    ##  4  2013 N804JB  B6      2013-01-01 05:00:00
    ##  5  2013 N668DN  DL      2013-01-01 06:00:00
    ##  6  2013 N39463  UA      2013-01-01 05:00:00
    ##  7  2013 N516JB  B6      2013-01-01 06:00:00
    ##  8  2013 N829AS  EV      2013-01-01 06:00:00
    ##  9  2013 N593JB  B6      2013-01-01 06:00:00
    ## 10  2013 N3ALAA  AA      2013-01-01 06:00:00
    ## # ... with 990 more rows
…
``` r
dim(airlines)
```

    ## [1] 16  2

``` r
# will repeat automatically
left_join(flights2,airlines,by="carrier")
```

    ## # A tibble: 1,000 x 5
    ##     year tailnum carrier time_hour           name                    
    ##    <int> <chr>   <chr>   <dttm>              <chr>                   
    ##  1  2013 N14228  UA      2013-01-01 05:00:00 United Air Lines Inc.   
    ##  2  2013 N24211  UA      2013-01-01 05:00:00 United Air Lines Inc.   
    ##  3  2013 N619AA  AA      2013-01-01 05:00:00 American Airlines Inc.  
    ##  4  2013 N804JB  B6      2013-01-01 05:00:00 JetBlue Airways         
    ##  5  2013 N668DN  DL      2013-01-01 06:00:00 Delta Air Lines Inc.    
    ##  6  2013 N39463  UA      2013-01-01 05:00:00 United Air Lines Inc.   
    ##  7  2013 N516JB  B6      2013-01-01 06:00:00 JetBlue Airways         
    ##  8  2013 N829AS  EV      2013-01-01 06:00:00 ExpressJet Airlines Inc.
    ##  9  2013 N593JB  B6      2013-01-01 06:00:00 JetBlue Airways         
    ## 10  2013 N3ALAA  AA      2013-01-01 06:00:00 American Airlines Inc.  
    ## # ... with 990 more rows

### 4. Add `weather` information to the `flights2` dataset by matching "year" and "time\_hour" variables.

``` r
#when a single var can't define a data, different days can have same time_hour
flights2 %>% 
  left_join(weather, by = c("year","time_hour")) 
```

    ## # A tibble: 2,888 x 17
    ##     year tailnum carrier time_hour           origin month   day  hour  temp
    ##    <dbl> <chr>   <chr>   <dttm>              <chr>  <dbl> <int> <int> <dbl>
    ##  1  2013 N14228  UA      2013-01-01 05:00:00 EWR        1     1     5  39.0
    ##  2  2013 N14228  UA      2013-01-01 05:00:00 JFK        1     1     5  39.0
    ##  3  2013 N14228  UA      2013-01-01 05:00:00 LGA        1     1     5  39.9
    ##  4  2013 N24211  UA      2013-01-01 05:00:00 EWR        1     1     5  39.0
    ##  5  2013 N24211  UA      2013-01-01 05:00:00 JFK        1     1     5  39.0
    ##  6  2013 N24211  UA      2013-01-01 05:00:00 LGA        1     1     5  39.9
    ##  7  2013 N619AA  AA      2013-01-01 05:00:00 EWR        1     1     5  39.0
    ##  8  2013 N619AA  AA      2013-01-01 05:00:00 JFK        1     1     5  39.0
    ##  9  2013 N619AA  AA      2013-01-01 05:00:00 LGA        1     1     5  39.9
    ## 10  2013 N804JB  B6      2013-01-01 05:00:00 EWR        1     1     5  39.0
    ## # ... with 2,878 more rows, and 8 more variables: dewp <dbl>, humid <dbl>,
    ## #   wind_dir <dbl>, wind_speed <dbl>, wind_gust <dbl>, precip <dbl>,
    ## #   pressure <dbl>, visib <dbl>

### 5. Add `weather` information to the `flights2` dataset by matching only "time\_hour" variable

``` r
flights2 %>% 
  left_join(weather, by = "time_hour")
```

    ## # A tibble: 2,888 x 18
    ##    year.x tailnum carrier time_hour           origin year.y month   day
    ##     <int> <chr>   <chr>   <dttm>              <chr>   <dbl> <dbl> <int>
    ##  1   2013 N14228  UA      2013-01-01 05:00:00 EWR      2013     1     1
    ##  2   2013 N14228  UA      2013-01-01 05:00:00 JFK      2013     1     1
    ##  3   2013 N14228  UA      2013-01-01 05:00:00 LGA      2013     1     1
    ##  4   2013 N24211  UA      2013-01-01 05:00:00 EWR      2013     1     1
    ##  5   2013 N24211  UA      2013-01-01 05:00:00 JFK      2013     1     1
    ##  6   2013 N24211  UA      2013-01-01 05:00:00 LGA      2013     1     1
    ##  7   2013 N619AA  AA      2013-01-01 05:00:00 EWR      2013     1     1
    ##  8   2013 N619AA  AA      2013-01-01 05:00:00 JFK      2013     1     1
    ##  9   2013 N619AA  AA      2013-01-01 05:00:00 LGA      2013     1     1
    ## 10   2013 N804JB  B6      2013-01-01 05:00:00 EWR      2013     1     1
    ## # ... with 2,878 more rows, and 10 more variables: hour <int>, temp <dbl>,
    ## #   dewp <dbl>, humid <dbl>, wind_dir <dbl>, wind_speed <dbl>,
    ## #   wind_gust <dbl>, precip <dbl>, pressure <dbl>, visib <dbl>
…
Practice Exercises
------------------

Practice these concepts in the following exercises. It might help you to first identify the type of function you are applying.

### 1. Filter the rows of `flights2` by matching "year" and "time\_hour" variables to `weather` dataset. Use both `semi_join()` and `anti_join()`

``` r
# we can use it as a filter function
semi_join(flights2,weather,by=c("year","time_hour")) 
```

    ## # A tibble: 1,000 x 4
    ##     year tailnum carrier time_hour          
    ##    <int> <chr>   <chr>   <dttm>             
    ##  1  2013 N14228  UA      2013-01-01 05:00:00
    ##  2  2013 N24211  UA      2013-01-01 05:00:00
    ##  3  2013 N619AA  AA      2013-01-01 05:00:00
    ##  4  2013 N804JB  B6      2013-01-01 05:00:00
    ##  5  2013 N668DN  DL      2013-01-01 06:00:00
    ##  6  2013 N39463  UA      2013-01-01 05:00:00
    ##  7  2013 N516JB  B6      2013-01-01 06:00:00
    ##  8  2013 N829AS  EV      2013-01-01 06:00:00
    ##  9  2013 N593JB  B6      2013-01-01 06:00:00
    ## 10  2013 N3ALAA  AA      2013-01-01 06:00:00
    ## # ... with 990 more rows
…
    ## # A tibble: 0 x 4
    ## # ... with 4 variables: year <int>, tailnum <chr>, carrier <chr>,
    ## #   time_hour <dttm>

### 2. Can we apply `set` and `binding` funcions between `flights2` and `weather` datasets. Why and why not?

``` r
#we can apply binding but not set functions since the number of their cols don't match

bind_rows(flights2,weather)
```

    ## # A tibble: 27,115 x 17
    ##     year tailnum carrier time_hour           origin month   day  hour  temp
    ##    <dbl> <chr>   <chr>   <dttm>              <chr>  <dbl> <int> <int> <dbl>
    ##  1  2013 N14228  UA      2013-01-01 05:00:00 <NA>      NA    NA    NA    NA
    ##  2  2013 N24211  UA      2013-01-01 05:00:00 <NA>      NA    NA    NA    NA
    ##  3  2013 N619AA  AA      2013-01-01 05:00:00 <NA>      NA    NA    NA    NA
    ##  4  2013 N804JB  B6      2013-01-01 05:00:00 <NA>      NA    NA    NA    NA
    ##  5  2013 N668DN  DL      2013-01-01 06:00:00 <NA>      NA    NA    NA    NA
    ##  6  2013 N39463  UA      2013-01-01 05:00:00 <NA>      NA    NA    NA    NA
    ##  7  2013 N516JB  B6      2013-01-01 06:00:00 <NA>      NA    NA    NA    NA
    ##  8  2013 N829AS  EV      2013-01-01 06:00:00 <NA>      NA    NA    NA    NA
    ##  9  2013 N593JB  B6      2013-01-01 06:00:00 <NA>      NA    NA    NA    NA
    ## 10  2013 N3ALAA  AA      2013-01-01 06:00:00 <NA>      NA    NA    NA    NA
    ## # ... with 27,105 more rows, and 8 more variables: dewp <dbl>,
    ## #   humid <dbl>, wind_dir <dbl>, wind_speed <dbl>, wind_gust <dbl>,
    ## #   precip <dbl>, pressure <dbl>, visib <dbl>
…
